%YAML 1.1
%TAG !u! tag:unity3d.com,2011:
--- !u!74 &7400000
AnimationClip:
  m_ObjectHideFlags: 0
  m_PrefabParentObject: {fileID: 0}
  m_PrefabInternal: {fileID: 0}
  m_Name: p2win
  serializedVersion: 6
  m_Legacy: 0
  m_Compressed: 0
  m_UseHighQualityCurve: 1
  m_RotationCurves: []
  m_CompressedRotationCurves: []
  m_EulerCurves: []
  m_PositionCurves: []
  m_ScaleCurves: []
  m_FloatCurves: []
  m_PPtrCurves:
  - curve:
    - time: 0
      value: {fileID: 21300000, guid: b5b113175d118b346b3fb1f249748ba0, type: 3}
    - time: 0.033333335
      value: {fileID: 21300000, guid: aab887e339e744b4bb1ae5a6464fd61f, type: 3}
    - time: 0.06666667
      value: {fileID: 21300000, guid: b8b8b06b67d64b94a8d2a730758a00f5, type: 3}
    - time: 0.1
      value: {fileID: 21300000, guid: c60d4d3d07ff80c4e8d63ef38610bb2e, type: 3}
    - time: 0.13333334
      value: {fileID: 21300000, guid: a4160d66f71353a4f81163cf56cca10d, type: 3}
    - time: 0.16666667
      value: {fileID: 21300000, guid: e43944dc4349ac841a9f29a5805aca71, type: 3}
    - time: 0.2
      value: {fileID: 21300000, guid: 9abb89fdd0029464eb2c1c2a38984efc, type: 3}
    - time: 0.23333333
      value: {fileID: 21300000, guid: 3b9e2c80f3e6e0240aa123a7bc8c34c5, type: 3}
    - time: 0.26666668
      value: {fileID: 21300000, guid: 4fdf1ec4385e6cf4093e30ab0f6e6aaa, type: 3}
    - time: 0.3
      value: {fileID: 21300000, guid: 206fa2d106b5c6941b446a10700fcf08, type: 3}
    - time: 0.33333334
      value: {fileID: 21300000, guid: 7672b91f116032d4bacb840320474848, type: 3}
    - time: 0.36666667
      value: {fileID: 21300000, guid: e8dde97a372c2e444b6ac77d025f386f, type: 3}
    - time: 0.4
      value: {fileID: 21300000, guid: 0263e47e52c031e41a16ec8a6d9cb0e6, type: 3}
    - time: 0.43333334
      value: {fileID: 21300000, guid: 58e05d6448ac6e647adfac46c42295cb, type: 3}
    - time: 0.46666667
      value: {fileID: 21300000, guid: 2fc67f298b78e344b87d859b8da69731, type: 3}
    - time: 0.5
      value: {fileID: 21300000, guid: 94d87f9036cd3a54fab4cae3d9b10258, type: 3}
    - time: 0.53333336
      value: {fileID: 21300000, guid: 2b0d3969779b73346bb7c34e2a42fb3d, type: 3}
    - time: 0.56666666
      value: {fileID: 21300000, guid: eafc4986868b9da4581c52c6742dfeb9, type: 3}
    - time: 0.6
      value: {fileID: 21300000, guid: 7cb216d8a51d6614790488f4b7658a1f, type: 3}
    - time: 0.6333333
      value: {fileID: 21300000, guid: 2b52c07c5b07aec40a17bc07a5f7f6fa, type: 3}
    - time: 0.6666667
      value: {fileID: 21300000, guid: fd67efe94a310e44bbdebef27efff5d0, type: 3}
    - time: 0.7
      value: {fileID: 21300000, guid: 9294e1d0730ba7241b3fc60cf57073a7, type: 3}
    - time: 0.73333335
      value: {fileID: 21300000, guid: b47cb0bdfc89921488abd498c7d0b7b2, type: 3}
    - time: 0.76666665
      value: {fileID: 21300000, guid: ac3466ed2b772304f8e85209fa365684, type: 3}
    - time: 0.8
      value: {fileID: 21300000, guid: 99b1c507dd3e8f44c9529e79a0cabfbc, type: 3}
    - time: 0.8333333
      value: {fileID: 21300000, guid: 03826244b8b6bf94383924e732076bdd, type: 3}
    - time: 0.8666667
      value: {fileID: 21300000, guid: e19b01ce09650a2419605ea1650401c6, type: 3}
    - time: 0.9
      value: {fileID: 21300000, guid: 88bd4a7740885084b8157ab234e44db5, type: 3}
    - time: 0.93333334
      value: {fileID: 21300000, guid: 9db0ce9c717bcda468783b507e38cfa2, type: 3}
    - time: 0.96666664
      value: {fileID: 21300000, guid: c5679e9a4189a51468d36d7e89aa3a17, type: 3}
    - time: 1
      value: {fileID: 21300000, guid: 337e7c9e9181b9f49aadb74e7c647851, type: 3}
    - time: 1.0333333
      value: {fileID: 21300000, guid: e288fbfeaf9894c4f8bc9cf2a9cfc810, type: 3}
    - time: 1.0666667
      value: {fileID: 21300000, guid: 2fc2a80701d718a478bf33d3f2660a51, type: 3}
    - time: 1.1
      value: {fileID: 21300000, guid: 2e3db7f6fb5265c4f9516e66113381a4, type: 3}
    - time: 1.1333333
      value: {fileID: 21300000, guid: 81da01b6473c82d419c8ecbc6c6838d7, type: 3}
    - time: 1.1666666
      value: {fileID: 21300000, guid: 76e36c375fed60845af6c913f12bd4b6, type: 3}
    - time: 1.2
      value: {fileID: 21300000, guid: 62fae85ab4f04724eaaf52fbd65255c1, type: 3}
    - time: 1.2333333
      value: {fileID: 21300000, guid: 76b1baf14ddeecc4aa929f0c7a29e628, type: 3}
    - time: 1.2666667
      value: {fileID: 21300000, guid: ba6f0730084ec9f49ad1978a96c050fe, type: 3}
    - time: 1.3
      value: {fileID: 21300000, guid: ba9260ff297db98438ebf059925e80c9, type: 3}
    - time: 1.3333334
      value: {fileID: 21300000, guid: 33f714eaeb700ba4481d3639afc7d3e5, type: 3}
    - time: 1.3666667
      value: {fileID: 21300000, guid: 8b8201516a63edc4a9dc55ac957ab52c, type: 3}
    - time: 1.4
      value: {fileID: 21300000, guid: 1458480811b69074ca1d0bbc65ef9258, type: 3}
    - time: 1.4333333
      value: {fileID: 21300000, guid: b40744584847cc14987112074ebcb34a, type: 3}
    - time: 1.4666667
      value: {fileID: 21300000, guid: 80045c1144b023b4d91853e8a2c8677c, type: 3}
    - time: 1.5
      value: {fileID: 21300000, guid: c850039dac3d023459f54e56a69e053f, type: 3}
    - time: 1.5333333
      value: {fileID: 21300000, guid: 0f19248401808bf47855183364965f46, type: 3}
    - time: 1.5666667
      value: {fileID: 21300000, guid: 943e09d0d293a5b4fa3d6368987506a3, type: 3}
    - time: 1.6
      value: {fileID: 21300000, guid: 13c99e2e2a1cd304ebd389c4fba26ec6, type: 3}
    - time: 1.6333333
      value: {fileID: 21300000, guid: 177394ddd6f89ba478e511cb6d1d4c2c, type: 3}
    - time: 1.6666666
      value: {fileID: 21300000, guid: 069f7acc7617b0443b92821d498968f5, type: 3}
    - time: 1.7
      value: {fileID: 21300000, guid: df0a5ef81521cf8448a0b986e24e1508, type: 3}
    - time: 1.7333333
      value: {fileID: 21300000, guid: 1a98b1be1040b184faf9993c3372573a, type: 3}
    - time: 1.7666667
      value: {fileID: 21300000, guid: 1104b0b6344772844855eaf118f22393, type: 3}
    - time: 1.8
      value: {fileID: 21300000, guid: 1c33d9ca901658e4e9c826ae1bc3ffa0, type: 3}
    - time: 1.8333334
      value: {fileID: 21300000, guid: 4dabe867a9b16214d9bc20446ad009fc, type: 3}
    - time: 1.8666667
      value: {fileID: 21300000, guid: 4f4292964b7461040b0fa94b435b038a, type: 3}
    - time: 1.9
      value: {fileID: 21300000, guid: a68ee61c6f37a2d4982e467577b1359d, type: 3}
    - time: 1.9333333
      value: {fileID: 21300000, guid: fcb2a6a3c3311a440a1d48ed0ae7b884, type: 3}
    - time: 1.9666667
      value: {fileID: 21300000, guid: 7860e8a8047d41e43b4cf07e4d6a4272, type: 3}
    - time: 2
      value: {fileID: 21300000, guid: 5142ccdfe92ea124a8c3c1ba780308cf, type: 3}
    - time: 2.0333333
      value: {fileID: 21300000, guid: c3fd49f4ffc62c24486e42b06d3c111c, type: 3}
    - time: 2.0666666
      value: {fileID: 21300000, guid: 9a7b14e6b8e81494f8e03e5d2bcfefa2, type: 3}
    - time: 2.1
      value: {fileID: 21300000, guid: 4de2c94297d12d147b83021fa9be118c, type: 3}
    - time: 2.1333334
      value: {fileID: 21300000, guid: 328dfd992ee13bb449224f883988dd9c, type: 3}
    - time: 2.1666667
      value: {fileID: 21300000, guid: 1ca7b42c59a34374f9975fdd7c6cb88d, type: 3}
    - time: 2.2
      value: {fileID: 21300000, guid: f1c37c8f8b84d7b4db8d57ca5734c4ec, type: 3}
    - time: 2.2333333
      value: {fileID: 21300000, guid: 5bbb588a69b50fd42b57bf1d32588672, type: 3}
    - time: 2.2666667
      value: {fileID: 21300000, guid: 0304bca1c4321d94a95523c98fb27d87, type: 3}
    - time: 2.3
      value: {fileID: 21300000, guid: ac53934b27923a84a9d2e36912a90d12, type: 3}
    - time: 2.3333333
      value: {fileID: 21300000, guid: 42e1d8a0aef161b4c87355b9cde8f873, type: 3}
    - time: 2.3666666
      value: {fileID: 21300000, guid: cd71544e3fbccd243ae530f435e8fbca, type: 3}
    - time: 2.3999999
      value: {fileID: 21300000, guid: fc79ded7ed5782741bc02a1d9b8f3834, type: 3}
    - time: 2.4333332
      value: {fileID: 21300000, guid: 29ebddd2fbd5b7b4f87c1030ed20c76c, type: 3}
    - time: 2.4666665
      value: {fileID: 21300000, guid: a2e227d8a9918c047b9e2a3e6aed6e2b, type: 3}
    - time: 2.4999998
      value: {fileID: 21300000, guid: e62e202abeadbb743a13300f370f7e6e, type: 3}
    - time: 2.533333
      value: {fileID: 21300000, guid: 7272a338b212f0141b059bde2a605b7c, type: 3}
    - time: 2.5666664
      value: {fileID: 21300000, guid: 5f904f3eab9431d438a1fcd82922de60, type: 3}
    - time: 2.5999997
      value: {fileID: 21300000, guid: 8e17657b1f679784bade724378921fe9, type: 3}
    attribute: m_Sprite
    path: 
    classID: 114
    script: {fileID: -765806418, guid: f5f67c52d1564df4a8936ccd202a3bd8, type: 3}
  m_SampleRate: 30
  m_WrapMode: 0
  m_Bounds:
    m_Center: {x: 0, y: 0, z: 0}
    m_Extent: {x: 0, y: 0, z: 0}
  m_ClipBindingConstant:
    genericBindings:
    - path: 0
      attribute: 2015549526
      script: {fileID: -765806418, guid: f5f67c52d1564df4a8936ccd202a3bd8, type: 3}
      classID: 114
      customType: 0
      isPPtrCurve: 1
    pptrCurveMapping:
    - {fileID: 21300000, guid: b5b113175d118b346b3fb1f249748ba0, type: 3}
    - {fileID: 21300000, guid: aab887e339e744b4bb1ae5a6464fd61f, type: 3}
    - {fileID: 21300000, guid: b8b8b06b67d64b94a8d2a730758a00f5, type: 3}
    - {fileID: 21300000, guid: c60d4d3d07ff80c4e8d63ef38610bb2e, type: 3}
    - {fileID: 21300000, guid: a4160d66f71353a4f81163cf56cca10d, type: 3}
    - {fileID: 21300000, guid: e43944dc4349ac841a9f29a5805aca71, type: 3}
    - {fileID: 21300000, guid: 9abb89fdd0029464eb2c1c2a38984efc, type: 3}
    - {fileID: 21300000, guid: 3b9e2c80f3e6e0240aa123a7bc8c34c5, type: 3}
    - {fileID: 21300000, guid: 4fdf1ec4385e6cf4093e30ab0f6e6aaa, type: 3}
    - {fileID: 21300000, guid: 206fa2d106b5c6941b446a10700fcf08, type: 3}
    - {fileID: 21300000, guid: 7672b91f116032d4bacb840320474848, type: 3}
    - {fileID: 21300000, guid: e8dde97a372c2e444b6ac77d025f386f, type: 3}
    - {fileID: 21300000, guid: 0263e47e52c031e41a16ec8a6d9cb0e6, type: 3}
    - {fileID: 21300000, guid: 58e05d6448ac6e647adfac46c42295cb, type: 3}
    - {fileID: 21300000, guid: 2fc67f298b78e344b87d859b8da69731, type: 3}
    - {fileID: 21300000, guid: 94d87f9036cd3a54fab4cae3d9b10258, type: 3}
    - {fileID: 21300000, guid: 2b0d3969779b73346bb7c34e2a42fb3d, type: 3}
    - {fileID: 21300000, guid: eafc4986868b9da4581c52c6742dfeb9, type: 3}
    - {fileID: 21300000, guid: 7cb216d8a51d6614790488f4b7658a1f, type: 3}
    - {fileID: 21300000, guid: 2b52c07c5b07aec40a17bc07a5f7f6fa, type: 3}
    - {fileID: 21300000, guid: fd67efe94a310e44bbdebef27efff5d0, type: 3}
    - {fileID: 21300000, guid: 9294e1d0730ba7241b3fc60cf57073a7, type: 3}
    - {fileID: 21300000, guid: b47cb0bdfc89921488abd498c7d0b7b2, type: 3}
    - {fileID: 21300000, guid: ac3466ed2b772304f8e85209fa365684, type: 3}
    - {fileID: 21300000, guid: 99b1c507dd3e8f44c9529e79a0cabfbc, type: 3}
    - {fileID: 21300000, guid: 03826244b8b6bf94383924e732076bdd, type: 3}
    - {fileID: 21300000, guid: e19b01ce09650a2419605ea1650401c6, type: 3}
    - {fileID: 21300000, guid: 88bd4a7740885084b8157ab234e44db5, type: 3}
    - {fileID: 21300000, guid: 9db0ce9c717bcda468783b507e38cfa2, type: 3}
    - {fileID: 21300000, guid: c5679e9a4189a51468d36d7e89aa3a17, type: 3}
    - {fileID: 21300000, guid: 337e7c9e9181b9f49aadb74e7c647851, type: 3}
    - {fileID: 21300000, guid: e288fbfeaf9894c4f8bc9cf2a9cfc810, type: 3}
    - {fileID: 21300000, guid: 2fc2a80701d718a478bf33d3f2660a51, type: 3}
    - {fileID: 21300000, guid: 2e3db7f6fb5265c4f9516e66113381a4, type: 3}
    - {fileID: 21300000, guid: 81da01b6473c82d419c8ecbc6c6838d7, type: 3}
    - {fileID: 21300000, guid: 76e36c375fed60845af6c913f12bd4b6, type: 3}
    - {fileID: 21300000, guid: 62fae85ab4f04724eaaf52fbd65255c1, type: 3}
    - {fileID: 21300000, guid: 76b1baf14ddeecc4aa929f0c7a29e628, type: 3}
    - {fileID: 21300000, guid: ba6f0730084ec9f49ad1978a96c050fe, type: 3}
    - {fileID: 21300000, guid: ba9260ff297db98438ebf059925e80c9, type: 3}
    - {fileID: 21300000, guid: 33f714eaeb700ba4481d3639afc7d3e5, type: 3}
    - {fileID: 21300000, guid: 8b8201516a63edc4a9dc55ac957ab52c, type: 3}
    - {fileID: 21300000, guid: 1458480811b69074ca1d0bbc65ef9258, type: 3}
    - {fileID: 21300000, guid: b40744584847cc14987112074ebcb34a, type: 3}
    - {fileID: 21300000, guid: 80045c1144b023b4d91853e8a2c8677c, type: 3}
    - {fileID: 21300000, guid: c850039dac3d023459f54e56a69e053f, type: 3}
    - {fileID: 21300000, guid: 0f19248401808bf47855183364965f46, type: 3}
    - {fileID: 21300000, guid: 943e09d0d293a5b4fa3d6368987506a3, type: 3}
    - {fileID: 21300000, guid: 13c99e2e2a1cd304ebd389c4fba26ec6, type: 3}
    - {fileID: 21300000, guid: 177394ddd6f89ba478e511cb6d1d4c2c, type: 3}
    - {fileID: 21300000, guid: 069f7acc7617b0443b92821d498968f5, type: 3}
    - {fileID: 21300000, guid: df0a5ef81521cf8448a0b986e24e1508, type: 3}
    - {fileID: 21300000, guid: 1a98b1be1040b184faf9993c3372573a, type: 3}
    - {fileID: 21300000, guid: 1104b0b6344772844855eaf118f22393, type: 3}
    - {fileID: 21300000, guid: 1c33d9ca901658e4e9c826ae1bc3ffa0, type: 3}
    - {fileID: 21300000, guid: 4dabe867a9b16214d9bc20446ad009fc, type: 3}
    - {fileID: 21300000, guid: 4f4292964b7461040b0fa94b435b038a, type: 3}
    - {fileID: 21300000, guid: a68ee61c6f37a2d4982e467577b1359d, type: 3}
    - {fileID: 21300000, guid: fcb2a6a3c3311a440a1d48ed0ae7b884, type: 3}
    - {fileID: 21300000, guid: 7860e8a8047d41e43b4cf07e4d6a4272, type: 3}
    - {fileID: 21300000, guid: 5142ccdfe92ea124a8c3c1ba780308cf, type: 3}
    - {fileID: 21300000, guid: c3fd49f4ffc62c24486e42b06d3c111c, type: 3}
    - {fileID: 21300000, guid: 9a7b14e6b8e81494f8e03e5d2bcfefa2, type: 3}
    - {fileID: 21300000, guid: 4de2c94297d12d147b83021fa9be118c, type: 3}
    - {fileID: 21300000, guid: 328dfd992ee13bb449224f883988dd9c, type: 3}
    - {fileID: 21300000, guid: 1ca7b42c59a34374f9975fdd7c6cb88d, type: 3}
    - {fileID: 21300000, guid: f1c37c8f8b84d7b4db8d57ca5734c4ec, type: 3}
    - {fileID: 21300000, guid: 5bbb588a69b50fd42b57bf1d32588672, type: 3}
    - {fileID: 21300000, guid: 0304bca1c4321d94a95523c98fb27d87, type: 3}
    - {fileID: 21300000, guid: ac53934b27923a84a9d2e36912a90d12, type: 3}
    - {fileID: 21300000, guid: 42e1d8a0aef161b4c87355b9cde8f873, type: 3}
    - {fileID: 21300000, guid: cd71544e3fbccd243ae530f435e8fbca, type: 3}
    - {fileID: 21300000, guid: fc79ded7ed5782741bc02a1d9b8f3834, type: 3}
    - {fileID: 21300000, guid: 29ebddd2fbd5b7b4f87c1030ed20c76c, type: 3}
    - {fileID: 21300000, guid: a2e227d8a9918c047b9e2a3e6aed6e2b, type: 3}
    - {fileID: 21300000, guid: e62e202abeadbb743a13300f370f7e6e, type: 3}
    - {fileID: 21300000, guid: 7272a338b212f0141b059bde2a605b7c, type: 3}
    - {fileID: 21300000, guid: 5f904f3eab9431d438a1fcd82922de60, type: 3}
    - {fileID: 21300000, guid: 8e17657b1f679784bade724378921fe9, type: 3}
  m_AnimationClipSettings:
    serializedVersion: 2
    m_AdditiveReferencePoseClip: {fileID: 0}
    m_AdditiveReferencePoseTime: 0
    m_StartTime: 0
    m_StopTime: 2.633333
    m_OrientationOffsetY: 0
    m_Level: 0
    m_CycleOffset: 0
    m_HasAdditiveReferencePose: 0
    m_LoopTime: 1
    m_LoopBlend: 0
    m_LoopBlendOrientation: 0
    m_LoopBlendPositionY: 0
    m_LoopBlendPositionXZ: 0
    m_KeepOriginalOrientation: 0
    m_KeepOriginalPositionY: 1
    m_KeepOriginalPositionXZ: 0
    m_HeightFromFeet: 0
    m_Mirror: 0
  m_EditorCurves: []
  m_EulerEditorCurves: []
  m_HasGenericRootTransform: 0
  m_HasMotionFloatCurves: 0
  m_GenerateMotionCurves: 0
  m_Events: []
