%YAML 1.1
%TAG !u! tag:unity3d.com,2011:
--- !u!21 &2100000
Material:
  serializedVersion: 6
  m_ObjectHideFlags: 0
  m_PrefabParentObject: {fileID: 0}
  m_PrefabInternal: {fileID: 0}
  m_Name: LiquidRenderTexture
  m_Shader: {fileID: 4800000, guid: a2fd2ba324b216f48bc7299f1c29aa5e, type: 3}
  m_ShaderKeywords: 
  m_LightmapFlags: 5
  m_CustomRenderQueue: -1
  stringTagMap: {}
  m_SavedProperties:
    serializedVersion: 2
    m_TexEnvs:
      data:
        first:
          name: _MainTex
        second:
          m_Texture: {fileID: 8400000, guid: bf167d543717b9e48976cfeda4181ac8, type: 2}
          m_Scale: {x: 1, y: 1}
          m_Offset: {x: 0, y: 0}
      data:
        first:
          name: _Illum
        second:
          m_Texture: {fileID: 0}
          m_Scale: {x: 1, y: 1}
          m_Offset: {x: 0, y: 0}
      data:
        first:
          name: _IceTex
        second:
          m_Texture: {fileID: 8400000, guid: eb302debdf725de48a069d0a0635c707, type: 2}
          m_Scale: {x: 1, y: 1}
          m_Offset: {x: 0, y: 0}
      data:
        first:
          name: _NoiseTex
        second:
          m_Texture: {fileID: 2800000, guid: cc4f7661644fba949b6a8347eb42272c, type: 3}
          m_Scale: {x: 1, y: 1}
          m_Offset: {x: 0, y: 0}
    m_Floats:
      data:
        first:
          name: PixelSnap
        second: 0
      data:
        first:
          name: _EmissionLM
        second: 0
      data:
        first:
          name: _InnerValue
        second: 0.1
      data:
        first:
          name: _OuterValue
        second: 0.66249996
      data:
        first:
          name: _TransTresh
        second: 0.089285724
      data:
        first:
          name: _MetaballAlpha
        second: 1
      data:
        first:
          name: _SliderValue
        second: 0
    m_Colors:
      data:
        first:
          name: _Color
        second: {r: 1, g: 1, b: 1, a: 1}
