%YAML 1.1
%TAG !u! tag:unity3d.com,2011:
--- !u!74 &7400000
AnimationClip:
  m_ObjectHideFlags: 0
  m_PrefabParentObject: {fileID: 0}
  m_PrefabInternal: {fileID: 0}
  m_Name: player1animation
  serializedVersion: 6
  m_Legacy: 0
  m_Compressed: 0
  m_UseHighQualityCurve: 1
  m_RotationCurves: []
  m_CompressedRotationCurves: []
  m_EulerCurves: []
  m_PositionCurves: []
  m_ScaleCurves: []
  m_FloatCurves: []
  m_PPtrCurves:
  - curve:
    - time: 0
      value: {fileID: 21300000, guid: 3609a2024b5f6d3499ed0d35363fbb87, type: 3}
    - time: 0.033333335
      value: {fileID: 21300000, guid: 8a947c9c2525c4e4c89c0f8eae9a7116, type: 3}
    - time: 0.06666667
      value: {fileID: 21300000, guid: c0790d8af6c486c4581c779cc5b38d52, type: 3}
    - time: 0.1
      value: {fileID: 21300000, guid: adaafe33051ffc64795ef4d3b2189d84, type: 3}
    - time: 0.13333334
      value: {fileID: 21300000, guid: 52388d88a05bab243b685adfd6c6959d, type: 3}
    - time: 0.16666667
      value: {fileID: 21300000, guid: cb6aac2729c8b6b4f9140dcb48f05280, type: 3}
    - time: 0.2
      value: {fileID: 21300000, guid: 9cc1a2d004faacd40931a661d3ce523b, type: 3}
    - time: 0.23333333
      value: {fileID: 21300000, guid: 680dcc3ed50221244b1207f5b7953df4, type: 3}
    - time: 0.26666668
      value: {fileID: 21300000, guid: 5bf90b0795239e34eba22b95d532f0f8, type: 3}
    - time: 0.3
      value: {fileID: 21300000, guid: bde4a9b40c03ca944ba2160b7f99619b, type: 3}
    - time: 0.33333334
      value: {fileID: 21300000, guid: 8b8b041af43e7bb4b89bc5f4b321bbc1, type: 3}
    - time: 0.36666667
      value: {fileID: 21300000, guid: 765a36712ab3b6545b78bf2c7d500ad0, type: 3}
    - time: 0.4
      value: {fileID: 21300000, guid: bf120b560a6477b499930e3b92df7fd9, type: 3}
    - time: 0.43333334
      value: {fileID: 21300000, guid: f165637a5bbc67b41b8103dae677055b, type: 3}
    - time: 0.46666667
      value: {fileID: 21300000, guid: 9a61b09812e0cb14aacf4f9339d051cf, type: 3}
    - time: 0.5
      value: {fileID: 21300000, guid: 39e4fe7f51453a14a85e7e8ac6a00651, type: 3}
    - time: 0.53333336
      value: {fileID: 21300000, guid: 0473340ffbd42234aa8ddd1dee90a86e, type: 3}
    - time: 0.56666666
      value: {fileID: 21300000, guid: 1406dd2784822334a8d0439357e0962a, type: 3}
    - time: 0.6
      value: {fileID: 21300000, guid: f54c633222183874eb9cf122821c2f49, type: 3}
    - time: 0.6333333
      value: {fileID: 21300000, guid: 3bd822f541b800a4fbcbb7b92a2a3982, type: 3}
    - time: 0.6666667
      value: {fileID: 21300000, guid: 248b3f540d3efda4c9cbb44061792872, type: 3}
    - time: 0.7
      value: {fileID: 21300000, guid: 8414d8d069d9a93418115cae82b4d441, type: 3}
    - time: 0.73333335
      value: {fileID: 21300000, guid: b12a240df0fe1874597f7893d5e92cf2, type: 3}
    - time: 0.76666665
      value: {fileID: 21300000, guid: b8656f13165725a47b81b21ad4238870, type: 3}
    - time: 0.8
      value: {fileID: 21300000, guid: a6293c24102337b44a215710ca71ccc0, type: 3}
    - time: 0.8333333
      value: {fileID: 21300000, guid: f64fe660addcdac438c9c100ffdf97a8, type: 3}
    - time: 0.8666667
      value: {fileID: 21300000, guid: 3e117f693b5105741a03b9b2e15e1c3e, type: 3}
    - time: 0.9
      value: {fileID: 21300000, guid: c6b5e0dea82cb104e8eacbf15b133163, type: 3}
    - time: 9.5
      value: {fileID: 21300000, guid: c6b5e0dea82cb104e8eacbf15b133163, type: 3}
    attribute: m_Sprite
    path: 
    classID: 114
    script: {fileID: -765806418, guid: f5f67c52d1564df4a8936ccd202a3bd8, type: 3}
  m_SampleRate: 30
  m_WrapMode: 0
  m_Bounds:
    m_Center: {x: 0, y: 0, z: 0}
    m_Extent: {x: 0, y: 0, z: 0}
  m_ClipBindingConstant:
    genericBindings:
    - path: 0
      attribute: 2015549526
      script: {fileID: -765806418, guid: f5f67c52d1564df4a8936ccd202a3bd8, type: 3}
      classID: 114
      customType: 0
      isPPtrCurve: 1
    pptrCurveMapping:
    - {fileID: 21300000, guid: 3609a2024b5f6d3499ed0d35363fbb87, type: 3}
    - {fileID: 21300000, guid: 8a947c9c2525c4e4c89c0f8eae9a7116, type: 3}
    - {fileID: 21300000, guid: c0790d8af6c486c4581c779cc5b38d52, type: 3}
    - {fileID: 21300000, guid: adaafe33051ffc64795ef4d3b2189d84, type: 3}
    - {fileID: 21300000, guid: 52388d88a05bab243b685adfd6c6959d, type: 3}
    - {fileID: 21300000, guid: cb6aac2729c8b6b4f9140dcb48f05280, type: 3}
    - {fileID: 21300000, guid: 9cc1a2d004faacd40931a661d3ce523b, type: 3}
    - {fileID: 21300000, guid: 680dcc3ed50221244b1207f5b7953df4, type: 3}
    - {fileID: 21300000, guid: 5bf90b0795239e34eba22b95d532f0f8, type: 3}
    - {fileID: 21300000, guid: bde4a9b40c03ca944ba2160b7f99619b, type: 3}
    - {fileID: 21300000, guid: 8b8b041af43e7bb4b89bc5f4b321bbc1, type: 3}
    - {fileID: 21300000, guid: 765a36712ab3b6545b78bf2c7d500ad0, type: 3}
    - {fileID: 21300000, guid: bf120b560a6477b499930e3b92df7fd9, type: 3}
    - {fileID: 21300000, guid: f165637a5bbc67b41b8103dae677055b, type: 3}
    - {fileID: 21300000, guid: 9a61b09812e0cb14aacf4f9339d051cf, type: 3}
    - {fileID: 21300000, guid: 39e4fe7f51453a14a85e7e8ac6a00651, type: 3}
    - {fileID: 21300000, guid: 0473340ffbd42234aa8ddd1dee90a86e, type: 3}
    - {fileID: 21300000, guid: 1406dd2784822334a8d0439357e0962a, type: 3}
    - {fileID: 21300000, guid: f54c633222183874eb9cf122821c2f49, type: 3}
    - {fileID: 21300000, guid: 3bd822f541b800a4fbcbb7b92a2a3982, type: 3}
    - {fileID: 21300000, guid: 248b3f540d3efda4c9cbb44061792872, type: 3}
    - {fileID: 21300000, guid: 8414d8d069d9a93418115cae82b4d441, type: 3}
    - {fileID: 21300000, guid: b12a240df0fe1874597f7893d5e92cf2, type: 3}
    - {fileID: 21300000, guid: b8656f13165725a47b81b21ad4238870, type: 3}
    - {fileID: 21300000, guid: a6293c24102337b44a215710ca71ccc0, type: 3}
    - {fileID: 21300000, guid: f64fe660addcdac438c9c100ffdf97a8, type: 3}
    - {fileID: 21300000, guid: 3e117f693b5105741a03b9b2e15e1c3e, type: 3}
    - {fileID: 21300000, guid: c6b5e0dea82cb104e8eacbf15b133163, type: 3}
    - {fileID: 21300000, guid: c6b5e0dea82cb104e8eacbf15b133163, type: 3}
  m_AnimationClipSettings:
    serializedVersion: 2
    m_AdditiveReferencePoseClip: {fileID: 0}
    m_AdditiveReferencePoseTime: 0
    m_StartTime: 0
    m_StopTime: 9.533334
    m_OrientationOffsetY: 0
    m_Level: 0
    m_CycleOffset: 0
    m_HasAdditiveReferencePose: 0
    m_LoopTime: 1
    m_LoopBlend: 0
    m_LoopBlendOrientation: 0
    m_LoopBlendPositionY: 0
    m_LoopBlendPositionXZ: 0
    m_KeepOriginalOrientation: 0
    m_KeepOriginalPositionY: 1
    m_KeepOriginalPositionXZ: 0
    m_HeightFromFeet: 0
    m_Mirror: 0
  m_EditorCurves: []
  m_EulerEditorCurves: []
  m_HasGenericRootTransform: 0
  m_HasMotionFloatCurves: 0
  m_GenerateMotionCurves: 0
  m_Events: []
