%YAML 1.1
%TAG !u! tag:unity3d.com,2011:
--- !u!1 &109258
GameObject:
  m_ObjectHideFlags: 0
  m_PrefabParentObject: {fileID: 0}
  m_PrefabInternal: {fileID: 100100000}
  serializedVersion: 4
  m_Component:
  - 4: {fileID: 497342}
  - 114: {fileID: 11414542}
  m_Layer: 9
  m_Name: Input Setup
  m_TagString: Untagged
  m_Icon: {fileID: 0}
  m_NavMeshLayer: 0
  m_StaticEditorFlags: 0
  m_IsActive: 1
--- !u!4 &497342
Transform:
  m_ObjectHideFlags: 1
  m_PrefabParentObject: {fileID: 0}
  m_PrefabInternal: {fileID: 100100000}
  m_GameObject: {fileID: 109258}
  m_LocalRotation: {x: 0, y: 0, z: 0, w: 1}
  m_LocalPosition: {x: 45.247284, y: 15.313263, z: 0}
  m_LocalScale: {x: 1, y: 1, z: 1}
  m_Children: []
  m_Father: {fileID: 0}
  m_RootOrder: 0
--- !u!114 &11414542
MonoBehaviour:
  m_ObjectHideFlags: 1
  m_PrefabParentObject: {fileID: 0}
  m_PrefabInternal: {fileID: 100100000}
  m_GameObject: {fileID: 109258}
  m_Enabled: 1
  m_EditorHideFlags: 0
  m_Script: {fileID: 11500000, guid: ef672f59affad534ca617a5027696fdf, type: 3}
  m_Name: 
  m_EditorClassIdentifier: 
  currentMapping: 1
  keyMaps:
  - mappingName: Keyboard
    bindings:
    - name: Select Horizontal
      negativeButton: 97
      positiveButton: 100
      altNegativeButton: 0
      altPositiveButton: 0
    - name: Select Vertical
      negativeButton: 115
      positiveButton: 119
      altNegativeButton: 0
      altPositiveButton: 0
    - name: Move Horizontal
      negativeButton: 106
      positiveButton: 108
      altNegativeButton: 0
      altPositiveButton: 0
    - name: Move Vertical
      negativeButton: 107
      positiveButton: 105
      altNegativeButton: 0
      altPositiveButton: 0
    - name: Launch
      negativeButton: 0
      positiveButton: 308
      altNegativeButton: 0
      altPositiveButton: 0
    - name: Launch B
      negativeButton: 0
      positiveButton: 308
      altNegativeButton: 0
      altPositiveButton: 313
    - name: Ink Spray
      negativeButton: 0
      positiveButton: 32
      altNegativeButton: 0
      altPositiveButton: 0
    - name: p2 Select Horizontal
      negativeButton: 276
      positiveButton: 275
      altNegativeButton: 0
      altPositiveButton: 0
    - name: p2 Select Vertical
      negativeButton: 274
      positiveButton: 273
      altNegativeButton: 0
      altPositiveButton: 0
    - name: p2 Move Horizontal
      negativeButton: 260
      positiveButton: 262
      altNegativeButton: 0
      altPositiveButton: 0
    - name: p2 Move Vertical
      negativeButton: 258
      positiveButton: 264
      altNegativeButton: 0
      altPositiveButton: 0
    - name: p2 Launch
      negativeButton: 0
      positiveButton: 305
      altNegativeButton: 0
      altPositiveButton: 0
    - name: p2 Launch B
      negativeButton: 0
      positiveButton: 270
      altNegativeButton: 0
      altPositiveButton: 0
    - name: p2 Ink Spray
      negativeButton: 0
      positiveButton: 256
      altNegativeButton: 0
      altPositiveButton: 0
  - mappingName: Arcade
    bindings:
    - name: Select Horizontal
      negativeButton: 100
      positiveButton: 115
      altNegativeButton: 0
      altPositiveButton: 0
    - name: Select Vertical
      negativeButton: 113
      positiveButton: 102
      altNegativeButton: 0
      altPositiveButton: 0
    - name: Move Horizontal
      negativeButton: 103
      positiveButton: 107
      altNegativeButton: 0
      altPositiveButton: 0
    - name: Move Vertical
      negativeButton: 56
      positiveButton: 52
      altNegativeButton: 264
      altPositiveButton: 260
    - name: Launch
      negativeButton: 0
      positiveButton: 97
      altNegativeButton: 0
      altPositiveButton: 0
    - name: Launch B
      negativeButton: 0
      positiveButton: 105
      altNegativeButton: 0
      altPositiveButton: 0
    - name: Ink Spray
      negativeButton: 0
      positiveButton: 306
      altNegativeButton: 0
      altPositiveButton: 0
    - name: p2 Select Horizontal
      negativeButton: 106
      positiveButton: 104
      altNegativeButton: 0
      altPositiveButton: 0
    - name: p2 Select Vertical
      negativeButton: 109
      positiveButton: 108
      altNegativeButton: 0
      altPositiveButton: 0
    - name: p2 Move Horizontal
      negativeButton: 110
      positiveButton: 118
      altNegativeButton: 0
      altPositiveButton: 0
    - name: p2 Move Vertical
      negativeButton: 98
      positiveButton: 117
      altNegativeButton: 0
      altPositiveButton: 0
    - name: p2 Launch
      negativeButton: 0
      positiveButton: 101
      altNegativeButton: 0
      altPositiveButton: 0
    - name: p2 Launch B
      negativeButton: 0
      positiveButton: 121
      altNegativeButton: 0
      altPositiveButton: 0
    - name: p2 Ink Spray
      negativeButton: 0
      positiveButton: 305
      altNegativeButton: 0
      altPositiveButton: 0
  - mappingName: None
    bindings:
    - name: Select Horizontal
      negativeButton: 0
      positiveButton: 0
      altNegativeButton: 0
      altPositiveButton: 0
    - name: Select Vertical
      negativeButton: 0
      positiveButton: 0
      altNegativeButton: 0
      altPositiveButton: 0
    - name: Move Horizontal
      negativeButton: 0
      positiveButton: 0
      altNegativeButton: 0
      altPositiveButton: 0
    - name: Move Vertical
      negativeButton: 0
      positiveButton: 0
      altNegativeButton: 0
      altPositiveButton: 0
    - name: Launch
      negativeButton: 0
      positiveButton: 0
      altNegativeButton: 0
      altPositiveButton: 0
    - name: Launch B
      negativeButton: 0
      positiveButton: 0
      altNegativeButton: 0
      altPositiveButton: 0
    - name: Ink Spray
      negativeButton: 0
      positiveButton: 0
      altNegativeButton: 0
      altPositiveButton: 0
    - name: p2 Select Horizontal
      negativeButton: 0
      positiveButton: 0
      altNegativeButton: 0
      altPositiveButton: 0
    - name: p2 Select Vertical
      negativeButton: 0
      positiveButton: 0
      altNegativeButton: 0
      altPositiveButton: 0
    - name: p2 Move Horizontal
      negativeButton: 0
      positiveButton: 0
      altNegativeButton: 0
      altPositiveButton: 0
    - name: p2 Move Vertical
      negativeButton: 0
      positiveButton: 0
      altNegativeButton: 0
      altPositiveButton: 0
    - name: p2 Launch
      negativeButton: 0
      positiveButton: 0
      altNegativeButton: 0
      altPositiveButton: 0
    - name: p2 Launch B
      negativeButton: 0
      positiveButton: 0
      altNegativeButton: 0
      altPositiveButton: 0
    - name: p2 Ink Spray
      negativeButton: 0
      positiveButton: 0
      altNegativeButton: 0
      altPositiveButton: 0
--- !u!1001 &100100000
Prefab:
  m_ObjectHideFlags: 1
  serializedVersion: 2
  m_Modification:
    m_TransformParent: {fileID: 0}
    m_Modifications: []
    m_RemovedComponents: []
  m_ParentPrefab: {fileID: 0}
  m_RootGameObject: {fileID: 109258}
  m_IsPrefabParent: 1
