%YAML 1.1
%TAG !u! tag:unity3d.com,2011:
--- !u!74 &7400000
AnimationClip:
  m_ObjectHideFlags: 0
  m_PrefabParentObject: {fileID: 0}
  m_PrefabInternal: {fileID: 0}
  m_Name: Starfall
  serializedVersion: 6
  m_Legacy: 0
  m_Compressed: 0
  m_UseHighQualityCurve: 1
  m_RotationCurves: []
  m_CompressedRotationCurves: []
  m_EulerCurves: []
  m_PositionCurves: []
  m_ScaleCurves: []
  m_FloatCurves: []
  m_PPtrCurves:
  - curve:
    - time: 0
      value: {fileID: 21300000, guid: 54bdb906432958240bd73757a26ecf55, type: 3}
    - time: 0.071428575
      value: {fileID: 21300000, guid: 845da3dcf73f2b449a27287c1a4bb93d, type: 3}
    - time: 0.14285715
      value: {fileID: 21300000, guid: 5af7b1b1f0a733e41b12e4e6aac57a85, type: 3}
    - time: 0.21428572
      value: {fileID: 21300000, guid: a8dd3d3a4c3e01a40a20ce563709867a, type: 3}
    - time: 0.2857143
      value: {fileID: 21300000, guid: 523b2bca22b900d45b93c3189fb7d7b2, type: 3}
    - time: 0.35714287
      value: {fileID: 21300000, guid: 63a141afa1a8c334cae1bef611b48646, type: 3}
    - time: 0.42857143
      value: {fileID: 21300000, guid: f815e22ee90b1464a98d8b19f247d00e, type: 3}
    - time: 0.5
      value: {fileID: 21300000, guid: 61959e35325b5af4aaa03647ad713341, type: 3}
    - time: 0.5714286
      value: {fileID: 21300000, guid: 2480e0140bd21b645b2e57203a4a7908, type: 3}
    - time: 0.64285713
      value: {fileID: 21300000, guid: 9501265195079b84f98737ec841ab775, type: 3}
    - time: 0.71428573
      value: {fileID: 21300000, guid: 4539c90e9308f3444a7b3ea2c3d73572, type: 3}
    - time: 0.78571427
      value: {fileID: 21300000, guid: 85057ce981a2eb0499091a4fb7421b0b, type: 3}
    - time: 0.85714287
      value: {fileID: 21300000, guid: 5ca4eb86eac1dab4ea06097e59562eb2, type: 3}
    - time: 0.9285714
      value: {fileID: 21300000, guid: 434212096bc742b41a83045435d9d78a, type: 3}
    attribute: m_Sprite
    path: 
    classID: 212
    script: {fileID: 0}
  m_SampleRate: 14
  m_WrapMode: 0
  m_Bounds:
    m_Center: {x: 0, y: 0, z: 0}
    m_Extent: {x: 0, y: 0, z: 0}
  m_ClipBindingConstant:
    genericBindings:
    - path: 0
      attribute: 0
      script: {fileID: 0}
      classID: 212
      customType: 23
      isPPtrCurve: 1
    pptrCurveMapping:
    - {fileID: 21300000, guid: 54bdb906432958240bd73757a26ecf55, type: 3}
    - {fileID: 21300000, guid: 845da3dcf73f2b449a27287c1a4bb93d, type: 3}
    - {fileID: 21300000, guid: 5af7b1b1f0a733e41b12e4e6aac57a85, type: 3}
    - {fileID: 21300000, guid: a8dd3d3a4c3e01a40a20ce563709867a, type: 3}
    - {fileID: 21300000, guid: 523b2bca22b900d45b93c3189fb7d7b2, type: 3}
    - {fileID: 21300000, guid: 63a141afa1a8c334cae1bef611b48646, type: 3}
    - {fileID: 21300000, guid: f815e22ee90b1464a98d8b19f247d00e, type: 3}
    - {fileID: 21300000, guid: 61959e35325b5af4aaa03647ad713341, type: 3}
    - {fileID: 21300000, guid: 2480e0140bd21b645b2e57203a4a7908, type: 3}
    - {fileID: 21300000, guid: 9501265195079b84f98737ec841ab775, type: 3}
    - {fileID: 21300000, guid: 4539c90e9308f3444a7b3ea2c3d73572, type: 3}
    - {fileID: 21300000, guid: 85057ce981a2eb0499091a4fb7421b0b, type: 3}
    - {fileID: 21300000, guid: 5ca4eb86eac1dab4ea06097e59562eb2, type: 3}
    - {fileID: 21300000, guid: 434212096bc742b41a83045435d9d78a, type: 3}
  m_AnimationClipSettings:
    serializedVersion: 2
    m_AdditiveReferencePoseClip: {fileID: 0}
    m_AdditiveReferencePoseTime: 0
    m_StartTime: 0
    m_StopTime: 1
    m_OrientationOffsetY: 0
    m_Level: 0
    m_CycleOffset: 0
    m_HasAdditiveReferencePose: 0
    m_LoopTime: 0
    m_LoopBlend: 0
    m_LoopBlendOrientation: 0
    m_LoopBlendPositionY: 0
    m_LoopBlendPositionXZ: 0
    m_KeepOriginalOrientation: 0
    m_KeepOriginalPositionY: 1
    m_KeepOriginalPositionXZ: 0
    m_HeightFromFeet: 0
    m_Mirror: 0
  m_EditorCurves: []
  m_EulerEditorCurves: []
  m_HasGenericRootTransform: 0
  m_HasMotionFloatCurves: 0
  m_GenerateMotionCurves: 0
  m_Events: []
